[gd_scene load_steps=4 format=3 uid="uid://cc5qdafidqop2"]

[ext_resource type="Script" path="res://SteamGetter.gd" id="1_b7v56"]

[sub_resource type="StyleBoxFlat" id="StyleBoxFlat_3vhvl"]
bg_color = Color(1, 1, 1, 0)

[sub_resource type="StyleBoxFlat" id="StyleBoxFlat_koc2m"]
bg_color = Color(0.329412, 0, 0.54902, 1)

[node name="Control" type="Control"]
layout_mode = 3
anchors_preset = 15
anchor_right = 1.0
anchor_bottom = 1.0
grow_horizontal = 2
grow_vertical = 2
script = ExtResource("1_b7v56")

[node name="ColorRect" type="ColorRect" parent="."]
layout_mode = 1
anchors_preset = 15
anchor_right = 1.0
anchor_bottom = 1.0
grow_horizontal = 2
grow_vertical = 2
color = Color(0.290196, 0.290196, 0.290196, 1)

[node name="Label" type="Label" parent="."]
layout_mode = 1
anchors_preset = 15
anchor_right = 1.0
anchor_bottom = 1.0
grow_horizontal = 2
grow_vertical = 2
autowrap_mode = 3

[node name="Button" type="Button" parent="."]
layout_mode = 1
anchors_preset = 12
anchor_top = 1.0
anchor_right = 1.0
anchor_bottom = 1.0
offset_top = -152.0
grow_horizontal = 2
grow_vertical = 0
text = "Install Bag With Friends"

[node name="Button3" type="Button" parent="."]
visible = false
layout_mode = 1
anchors_preset = 12
anchor_top = 1.0
anchor_right = 1.0
anchor_bottom = 1.0
offset_top = -152.0
offset_right = -240.0
grow_horizontal = 2
grow_vertical = 0
text = "Uninstall Bag With Friends"

[node name="ProgressBar" type="ProgressBar" parent="."]
visible = false
layout_mode = 1
anchors_preset = 15
anchor_right = 1.0
anchor_bottom = 1.0
grow_horizontal = 2
grow_vertical = 2
theme_override_styles/background = SubResource("StyleBoxFlat_3vhvl")
theme_override_styles/fill = SubResource("StyleBoxFlat_koc2m")
show_percentage = false

[node name="Label" type="Label" parent="ProgressBar"]
layout_mode = 1
anchors_preset = 15
anchor_right = 1.0
anchor_bottom = 1.0
grow_horizontal = 2
grow_vertical = 2
horizontal_alignment = 1
vertical_alignment = 1

[node name="Button2" type="Button" parent="."]
visible = false
layout_mode = 1
anchors_preset = 12
anchor_top = 1.0
anchor_right = 1.0
anchor_bottom = 1.0
offset_top = -152.0
grow_horizontal = 2
grow_vertical = 0
text = "Select Peaks of Yore folder"

[node name="FileDialog" type="FileDialog" parent="."]
title = "Open a Directory"
size = Vector2i(392, 159)
ok_button_text = "Select Current Folder"
file_mode = 2
access = 2

[connection signal="pressed" from="Button" to="." method="_on_button_pressed"]
[connection signal="pressed" from="Button3" to="." method="_on_button_3_pressed"]
[connection signal="pressed" from="Button2" to="." method="_on_button_2_pressed"]
[connection signal="canceled" from="FileDialog" to="." method="_on_file_dialog_canceled"]
[connection signal="dir_selected" from="FileDialog" to="." method="_on_file_dialog_dir_selected"]
